%YAML 1.1
%TAG !u! tag:unity3d.com,2011:
--- !u!114 &11400000
MonoBehaviour:
  m_ObjectHideFlags: 0
  m_CorrespondingSourceObject: {fileID: 0}
  m_PrefabInstance: {fileID: 0}
  m_PrefabAsset: {fileID: 0}
  m_GameObject: {fileID: 0}
  m_Enabled: 1
  m_EditorHideFlags: 0
  m_Script: {fileID: 11500000, guid: bbb281ee3bf0b054c82ac2347e9e782c, type: 3}
  m_Name: Boxes
  m_EditorClassIdentifier: 
  m_GroupName: Boxes
  m_Data:
    m_SerializedData: []
  m_GUID: f8ebe16368d3caa4e96533b4a4c50327
  m_SerializeEntries:
  - m_GUID: 22cc3c11d193c314380e9e7b9dfdae25
    m_Address: Assets/Game/Prefabs/Boxes/Angle_2x3_Box.prefab
    m_ReadOnly: 0
    m_SerializedLabels: []
  - m_GUID: 45bc5811d505d6d4a89011fa8ea7ffa8
    m_Address: Assets/Game/Prefabs/Boxes/Angle_2x4_Box.prefab
    m_ReadOnly: 0
    m_SerializedLabels: []
  - m_GUID: 8746f7cd90baded4eafb221537eab05c
    m_Address: Assets/Game/Prefabs/Boxes/Angle_3x3_Box.prefab
    m_ReadOnly: 0
    m_SerializedLabels: []
  - m_GUID: c18348c7f2bb4a542b62318bc65caf36
    m_Address: Assets/Game/Prefabs/Boxes/Angle_3x4_Box.prefab
    m_ReadOnly: 0
    m_SerializedLabels: []
  - m_GUID: 16dfec8fb9b2f5342ad42af3dd4722b1
    m_Address: Assets/Game/Prefabs/Boxes/Angle_4x4_Box.prefab
    m_ReadOnly: 0
    m_SerializedLabels: []
  - m_GUID: d78ed97efd6d7a5488823cb8c58b9867
    m_Address: Assets/Game/Prefabs/Boxes/Line_x2_Box.prefab
    m_ReadOnly: 0
    m_SerializedLabels: []
  - m_GUID: df957ce4907f5d14ba562365cce3c1e7
    m_Address: Assets/Game/Prefabs/Boxes/Line_x3_Box.prefab
    m_ReadOnly: 0
    m_SerializedLabels: []
  - m_GUID: 788a06346bfccc342913e9068e679dae
    m_Address: Assets/Game/Prefabs/Boxes/Line_x4_Box.prefab
    m_ReadOnly: 0
    m_SerializedLabels: []
  - m_GUID: e336c5a66ec2555438381e5471da24ef
    m_Address: Assets/Game/Prefabs/Boxes/One_Box.prefab
    m_ReadOnly: 0
    m_SerializedLabels: []
  - m_GUID: 75964d3a77c95584b8a632ec78aa8ed2
    m_Address: Assets/Game/Prefabs/Boxes/Rect_2x2_Box.prefab
    m_ReadOnly: 0
    m_SerializedLabels: []
  - m_GUID: 0ed49f8846586b542a3f42f53bc24ecc
    m_Address: Assets/Game/Prefabs/Boxes/Rect_2x3_Box.prefab
    m_ReadOnly: 0
    m_SerializedLabels: []
  - m_GUID: c44510771a5074747a2b75d945f4bc3a
    m_Address: Assets/Game/Prefabs/Boxes/Rect_2x4_Box.prefab
    m_ReadOnly: 0
    m_SerializedLabels: []
  - m_GUID: 7f88e59700ddc904d98369708a9a73fd
    m_Address: Assets/Game/Prefabs/Boxes/Rect_3x3_Box.prefab
    m_ReadOnly: 0
    m_SerializedLabels: []
  - m_GUID: b5c900147e856134ea63e23260b38e42
    m_Address: Assets/Game/Prefabs/Boxes/Rect_3x4_Box.prefab
    m_ReadOnly: 0
    m_SerializedLabels: []
  - m_GUID: d67a31b91a3031d46bf0bdcf70fffcca
    m_Address: Assets/Game/Prefabs/Boxes/Rect_4x4_Box.prefab
    m_ReadOnly: 0
    m_SerializedLabels: []
  - m_GUID: 1c4c1ae8dec3ae54d90e9e8e127307e4
    m_Address: Assets/Game/Prefabs/Boxes/TForm_Box.prefab
    m_ReadOnly: 0
    m_SerializedLabels: []
  - m_GUID: f323bb1bf2af5504a9eaeb8e51e9b0bd
    m_Address: Assets/Game/Prefabs/Boxes/ZForm_Box.prefab
    m_ReadOnly: 0
    m_SerializedLabels: []
  m_ReadOnly: 0
  m_Settings: {fileID: 11400000, guid: b3b4b7592757bf842b96096aa95e94b8, type: 2}
  m_SchemaSet:
    m_Schemas:
    - {fileID: 11400000, guid: 15be69efff4855848afad7ab197452be, type: 2}
    - {fileID: 11400000, guid: cbc8f15556a391e40a74925f6f33f727, type: 2}
