%YAML 1.1
%TAG !u! tag:unity3d.com,2011:
--- !u!114 &11400000
MonoBehaviour:
  m_ObjectHideFlags: 0
  m_CorrespondingSourceObject: {fileID: 0}
  m_PrefabInstance: {fileID: 0}
  m_PrefabAsset: {fileID: 0}
  m_GameObject: {fileID: 0}
  m_Enabled: 1
  m_EditorHideFlags: 0
  m_Script: {fileID: 11500000, guid: 08467d22ecb061e439893d4c78e3a71d, type: 3}
  m_Name: GameSettings
  m_EditorClassIdentifier: 
  box:
    _containerColor: {r: 0.4811321, g: 0.4811321, b: 0.4811321, a: 1}
    _inContainerAdditionalColor: {r: 0, g: 0, b: 0, a: 0.5019608}
    _inPreviewAdditionalColor: {r: 0, g: 0, b: 0, a: 0.7490196}
    _boxMaterial: {fileID: 2100000, guid: 7d1500d5886c3c64da228668b26d953e, type: 2}
    _dragTargetBoxMaterial: {fileID: 2100000, guid: 3318a5f8c4d8c8941aaeda58fe7ffa68,
      type: 2}
    _acceleration: 100
    _boxInFieldPositionZ: 0
    _boxMoveUpPositionZ: -0.6
    _contentInContainerPositionZ: -0.05
  gameField:
    _boxSpawners:
    - {fileID: 11400000, guid: c7d59e6413633ae49a7fdec3d5ead249, type: 2}
    _boxColors:
    - {r: 1, g: 0, b: 0, a: 1}
    - {r: 0, g: 1, b: 0, a: 1}
    - {r: 0, g: 0, b: 1, a: 1}
    _sameColorMultiplier: 2
    _oneBox: {fileID: 11400000, guid: 06b550ca3839ae548ba61ddfddaf9a54, type: 2}
    _spawnZoneHeight: 4
    _previewZoneHeight: 8
    _gameZoneHeight: 16
  screens:
    _preGameOverScreen:
      m_AssetGUID: 8acd706ac0fc01b40b6de460bbb823bd
      m_SubObjectName: 
      m_SubObjectType: 
      m_EditorAssetChanged: 0
    _gameOverScreen:
      m_AssetGUID: 78d620e020b48234784012a9809e164d
      m_SubObjectName: 
      m_SubObjectType: 
      m_EditorAssetChanged: 0
    _questionScreen:
      m_AssetGUID: 321d28d551e090d4d8ec724c16a07f36
      m_SubObjectName: 
      m_SubObjectType: 
      m_EditorAssetChanged: 0
  vfx:
    _minBoxVelocityForGroundedDust: 30
    _boxGroundedDust:
      m_AssetGUID: e5df5caad603c8349ba3481b8ded0927
      m_SubObjectName: 
      m_SubObjectType: 
      m_EditorAssetChanged: 0
    _boxRemovedDust:
      m_AssetGUID: 7b9c24f793c6aa44585af0af0b651782
      m_SubObjectName: 
      m_SubObjectType: 
      m_EditorAssetChanged: 0
    _coin:
      m_AssetGUID: a240874f4fcb5184a9aab813febb884f
      m_SubObjectName: 
      m_SubObjectType: 
      m_EditorAssetChanged: 0
    _congratulationMessageShowTime: 0.5
    _congratulationMessageFadeAnimationTime: 0.5
  sfx:
    _sounds:
    - sound: 0
      assetReference:
        m_AssetGUID: 1cf9f9578a89f43d2ba8d647f06a99fe
        m_SubObjectName: 
        m_SubObjectType: 
        m_EditorAssetChanged: 0
    - sound: 1
      assetReference:
        m_AssetGUID: 32d4b1811dda14a6cb9e059ee8ad17d2
        m_SubObjectName: 
        m_SubObjectType: 
        m_EditorAssetChanged: 0
    - sound: 2
      assetReference:
        m_AssetGUID: d46323e22e74e46baa241cbf48c85671
        m_SubObjectName: 
        m_SubObjectType: 
        m_EditorAssetChanged: 0
    - sound: 3
      assetReference:
        m_AssetGUID: 81652031b64c342cc8dbc59c138d77c5
        m_SubObjectName: 
        m_SubObjectType: 
        m_EditorAssetChanged: 0
    - sound: 4
      assetReference:
        m_AssetGUID: 7e26c9daf4c32483b9c2790e662d3f1b
        m_SubObjectName: 
        m_SubObjectType: 
        m_EditorAssetChanged: 0
    - sound: 5
      assetReference:
        m_AssetGUID: 7bef0064f8567430cac22499c6b93d4f
        m_SubObjectName: 
        m_SubObjectType: 
        m_EditorAssetChanged: 0
    _volumeVelocityCoefficient: 0.005
