%YAML 1.1
%TAG !u! tag:unity3d.com,2011:
--- !u!114 &11400000
MonoBehaviour:
  m_ObjectHideFlags: 0
  m_CorrespondingSourceObject: {fileID: 0}
  m_PrefabInstance: {fileID: 0}
  m_PrefabAsset: {fileID: 0}
  m_GameObject: {fileID: 0}
  m_Enabled: 1
  m_EditorHideFlags: 0
  m_Script: {fileID: 11500000, guid: ecdc3daf34ad7e644ae6dc7171def80a, type: 3}
  m_Name: Rect_4x4_Box
  m_EditorClassIdentifier: 
  _boxControllerReference:
    m_AssetGUID: d67a31b91a3031d46bf0bdcf70fffcca
    m_SubObjectName: 
    m_SubObjectType: 
    m_EditorAssetChanged: 0
  _color: {r: 0.25, g: 1, b: 0.4715789, a: 1}
  _cells:
  - {x: 0, y: 0}
  - {x: 1, y: 0}
  - {x: 2, y: 0}
  - {x: 3, y: 0}
  - {x: 0, y: 1}
  - {x: 1, y: 1}
  - {x: 2, y: 1}
  - {x: 3, y: 1}
  - {x: 0, y: 2}
  - {x: 1, y: 2}
  - {x: 2, y: 2}
  - {x: 3, y: 2}
  - {x: 0, y: 3}
  - {x: 1, y: 3}
  - {x: 2, y: 3}
  - {x: 3, y: 3}
