%YAML 1.1
%TAG !u! tag:unity3d.com,2011:
--- !u!114 &11400000
MonoBehaviour:
  m_ObjectHideFlags: 0
  m_CorrespondingSourceObject: {fileID: 0}
  m_PrefabInstance: {fileID: 0}
  m_PrefabAsset: {fileID: 0}
  m_GameObject: {fileID: 0}
  m_Enabled: 1
  m_EditorHideFlags: 0
  m_Script: {fileID: 11500000, guid: ecdc3daf34ad7e644ae6dc7171def80a, type: 3}
  m_Name: Rect_2x4_Box
  m_EditorClassIdentifier: 
  _boxControllerReference:
    m_AssetGUID: c44510771a5074747a2b75d945f4bc3a
    m_SubObjectName: 
    m_SubObjectType: 
    m_EditorAssetChanged: 0
  _color: {r: 0, g: 0.5676286, b: 1, a: 1}
  _cells:
  - {x: 0, y: 0}
  - {x: 1, y: 0}
  - {x: 0, y: 1}
  - {x: 1, y: 1}
  - {x: 0, y: 2}
  - {x: 1, y: 2}
  - {x: 0, y: 3}
  - {x: 1, y: 3}
