%YAML 1.1
%TAG !u! tag:unity3d.com,2011:
--- !u!114 &-140812638662940217
MonoBehaviour:
  m_ObjectHideFlags: 11
  m_CorrespondingSourceObject: {fileID: 0}
  m_PrefabInstance: {fileID: 0}
  m_PrefabAsset: {fileID: 0}
  m_GameObject: {fileID: 0}
  m_Enabled: 1
  m_EditorHideFlags: 0
  m_Script: {fileID: 11500000, guid: d0353a89b1f911e48b9e16bdc9f2e058, type: 3}
  m_Name: 
  m_EditorClassIdentifier: 
  version: 5
--- !u!21 &2100000
Material:
  serializedVersion: 8
  m_ObjectHideFlags: 0
  m_CorrespondingSourceObject: {fileID: 0}
  m_PrefabInstance: {fileID: 0}
  m_PrefabAsset: {fileID: 0}
  m_Name: BoxTransparent
  m_Shader: {fileID: 4800000, guid: 933532a4fcc9baf4fa0491de14d08ed7, type: 3}
  m_ValidKeywords:
  - _ENVIRONMENTREFLECTIONS_OFF
  - _RECEIVE_SHADOWS_OFF
  - _SURFACE_TYPE_TRANSPARENT
  m_InvalidKeywords: []
  m_LightmapFlags: 4
  m_EnableInstancingVariants: 0
  m_DoubleSidedGI: 0
  m_CustomRenderQueue: 3000
  stringTagMap:
    RenderType: Transparent
  disabledShaderPasses:
  - SHADOWCASTER
  - DepthOnly
  m_SavedProperties:
    serializedVersion: 3
    m_TexEnvs:
    - _BaseMap:
        m_Texture: {fileID: 0}
        m_Scale: {x: 1, y: 1}
        m_Offset: {x: 0, y: 0}
    - _BumpMap:
        m_Texture: {fileID: 0}
        m_Scale: {x: 1, y: 1}
        m_Offset: {x: 0, y: 0}
    - _DetailAlbedoMap:
        m_Texture: {fileID: 0}
        m_Scale: {x: 1, y: 1}
        m_Offset: {x: 0, y: 0}
    - _DetailMask:
        m_Texture: {fileID: 0}
        m_Scale: {x: 1, y: 1}
        m_Offset: {x: 0, y: 0}
    - _DetailNormalMap:
        m_Texture: {fileID: 0}
        m_Scale: {x: 1, y: 1}
        m_Offset: {x: 0, y: 0}
    - _DiffuseWrapNoise:
        m_Texture: {fileID: 0}
        m_Scale: {x: 1, y: 1}
        m_Offset: {x: 0, y: 0}
    - _EmissionMap:
        m_Texture: {fileID: 0}
        m_Scale: {x: 1, y: 1}
        m_Offset: {x: 0, y: 0}
    - _FaceShadowMap:
        m_Texture: {fileID: 0}
        m_Scale: {x: 1, y: 1}
        m_Offset: {x: 0, y: 0}
    - _HairSpecNoiseMap:
        m_Texture: {fileID: 0}
        m_Scale: {x: 1, y: 1}
        m_Offset: {x: 0, y: 0}
    - _HalfToneNoiseMap:
        m_Texture: {fileID: 0}
        m_Scale: {x: 1, y: 1}
        m_Offset: {x: 0, y: 0}
    - _HalfTonePatternMap:
        m_Texture: {fileID: 0}
        m_Scale: {x: 1, y: 1}
        m_Offset: {x: 0, y: 0}
    - _HatchingNoiseMap:
        m_Texture: {fileID: 0}
        m_Scale: {x: 1, y: 1}
        m_Offset: {x: 0, y: 0}
    - _MainTex:
        m_Texture: {fileID: 0}
        m_Scale: {x: 1, y: 1}
        m_Offset: {x: 0, y: 0}
    - _MetallicGlossMap:
        m_Texture: {fileID: 0}
        m_Scale: {x: 1, y: 1}
        m_Offset: {x: 0, y: 0}
    - _OcclusionMap:
        m_Texture: {fileID: 0}
        m_Scale: {x: 1, y: 1}
        m_Offset: {x: 0, y: 0}
    - _ParallaxMap:
        m_Texture: {fileID: 0}
        m_Scale: {x: 1, y: 1}
        m_Offset: {x: 0, y: 0}
    - _RampTex:
        m_Texture: {fileID: 2800000, guid: d5674c2ac82db1a4ab4cbb251d627e21, type: 3}
        m_Scale: {x: 1, y: 1}
        m_Offset: {x: 0, y: 0}
    - _SpecGlossMap:
        m_Texture: {fileID: 0}
        m_Scale: {x: 1, y: 1}
        m_Offset: {x: 0, y: 0}
    - _SpecularClipMask:
        m_Texture: {fileID: 0}
        m_Scale: {x: 1, y: 1}
        m_Offset: {x: 0, y: 0}
    - unity_Lightmaps:
        m_Texture: {fileID: 0}
        m_Scale: {x: 1, y: 1}
        m_Offset: {x: 0, y: 0}
    - unity_LightmapsInd:
        m_Texture: {fileID: 0}
        m_Scale: {x: 1, y: 1}
        m_Offset: {x: 0, y: 0}
    - unity_ShadowMasks:
        m_Texture: {fileID: 0}
        m_Scale: {x: 1, y: 1}
        m_Offset: {x: 0, y: 0}
    m_Ints: []
    m_Floats:
    - _AlphaClip: 0
    - _Blend: 0
    - _BrushLowerCut: 0
    - _BrushSize: 0.8
    - _BumpScale: 1
    - _ClearCoatMask: 0
    - _ClearCoatSmoothness: 0
    - _Cull: 2
    - _Cutoff: 0.5
    - _DetailAlbedoMapScale: 1
    - _DetailNormalMapScale: 1
    - _DiffuseStep: -1
    - _DitherTexelSize: 1
    - _DitherThreshold: 1
    - _DstBlend: 10
    - _EnabledHairSpec: 0
    - _EnvironmentReflections: 0
    - _FaceShadowMapEnabled: 0
    - _FaceShadowMapPow: 0.36
    - _FaceShadowSmoothness: 0.098
    - _FlattenGI: 1
    - _GlossMapScale: 0
    - _Glossiness: 0
    - _GlossinessSource: 0
    - _GlossyReflections: 0
    - _HairSpecExponent: 99
    - _HairSpecNoiseStrength: 0
    - _HairSpecularSize: 0.76
    - _HairSpecularSmoothness: 0.359
    - _HalfToneDiffuseStep: 0
    - _HalfToneEnabled: 0
    - _HalfToneIncludeReceivedShadow: 0
    - _HalfToneShape: 2
    - _HalfToneUvMode: 0
    - _HalftoneFadeDistance: 10
    - _HalftoneFadeToColor: 0
    - _HalftoneNoiseClip: 0.8
    - _HalftoneTilling: 8
    - _HatchingDensity: 0.732
    - _HatchingDiffuseOffset: 0
    - _HatchingDrawStrength: 0
    - _HatchingEnabled: 0
    - _HatchingRotation: 0
    - _HatchingSmoothness: 0.1
    - _LightContribution: 1
    - _LightFalloffSize: 1
    - _Metallic: 0.619
    - _NoiseScale: 1
    - _NoiseStrength: 0.1
    - _OcclusionStrength: 1
    - _OutlineEnabled: 0
    - _OutlineMode: 0
    - _OutlineWidth: 0
    - _OverrideShadowColor: 0
    - _Parallax: 0.005
    - _QueueOffset: 0
    - _ReceiveShadows: 0
    - _RimEnabled: 0
    - _RimLightAlign: 0
    - _RimLightSmoothness: 1
    - _RimPower: 0
    - _Shininess: 0
    - _SizeFalloff: 0
    - _Smoothness: 1
    - _SmoothnessSource: 1
    - _SmoothnessTextureChannel: 0
    - _SpecClipMaskScale: 1
    - _SpecShadowStrength: 0
    - _SpecSource: 0
    - _SpecularClipStrength: 0
    - _SpecularFalloff: 0.5
    - _SpecularHighlights: 1
    - _SpecularSize: 0.05
    - _SpherizeNormalEnabled: 0
    - _SrcBlend: 5
    - _StencilComp: 0
    - _StencilRef: 0
    - _StepViaRampTexture: 0
    - _Surface: 1
    - _ToonBlending: 1
    - _ToonEnabled: 0
    - _UseRampColor: 0
    - _WorkflowMode: 1
    - _ZWrite: 0
    - _brushScale: 8
    m_Colors:
    - _BaseColor: {r: 1, g: 1, b: 1, a: 0.5019608}
    - _Color: {r: 1, g: 1, b: 1, a: 0.5019608}
    - _EmissionColor: {r: 0, g: 0, b: 0, a: 1}
    - _FaceFrontDirection: {r: 0, g: 0, b: 1, a: 0}
    - _FaceRightDirection: {r: 1, g: 0, b: 0, a: 0}
    - _HairSpecColor: {r: 1, g: 1, b: 1, a: 0.5}
    - _HalfToneColor: {r: 0, g: 0, b: 0, a: 1}
    - _HatchingColor: {r: 0, g: 0, b: 0, a: 1}
    - _OutlineColor: {r: 0, g: 0, b: 0, a: 1}
    - _OutlineDistancFade: {r: -25, g: 50, b: 0, a: 0}
    - _RimColor: {r: 1, g: 1, b: 1, a: 0.5}
    - _ShadowColor: {r: 1, g: 1, b: 1, a: 0}
    - _SpecColor: {r: 1, g: 1, b: 1, a: 1}
    - _SpherizeNormalOrigin: {r: 0, g: 0, b: 0, a: 0}
  m_BuildTextureStacks: []
